<svg width="370" height="260" viewBox="0 0 370 260" fill="none" xmlns="http://www.w3.org/2000/svg">
<g clip-path="url(#clip0)">
<rect width="370" height="260" fill="#C1C7D0"/>
<g filter="url(#filter0_d)">
<circle cx="306" cy="193" r="15" fill="url(#paint0_linear)"/>
</g>
<g filter="url(#filter1_d)">
<circle cx="75" cy="197" r="30" fill="url(#paint1_linear)"/>
</g>
<g filter="url(#filter2_d)">
<circle cx="260" cy="63" r="10" fill="url(#paint2_linear)"/>
</g>
<path d="M33.0664 103.453C36.8587 103.453 39.8047 104.43 41.9043 106.383C44.0202 108.336 45.0781 110.908 45.0781 114.098C45.0781 117.32 44.0202 119.9 41.9043 121.837C39.8047 123.774 36.8587 124.742 33.0664 124.742H25.5225V135.24L29.502 135.924V139H16.7334V135.924L20.7129 135.24V107.237L16.7334 106.554V103.453H20.7129H33.0664ZM25.5225 120.982H33.0664C35.4753 120.982 37.2738 120.34 38.4619 119.054C39.6663 117.752 40.2686 116.116 40.2686 114.146C40.2686 112.177 39.6663 110.533 38.4619 109.215C37.2738 107.896 35.4753 107.237 33.0664 107.237H25.5225V120.982ZM48.96 115.685V112.584H57.2363L57.7002 116.417C58.4489 115.066 59.3685 114.008 60.459 113.243C61.5658 112.478 62.8271 112.096 64.2432 112.096C64.6175 112.096 65 112.128 65.3906 112.193C65.7975 112.242 66.1068 112.299 66.3184 112.364L65.6836 116.832L62.9492 116.686C61.6797 116.686 60.6136 116.987 59.751 117.589C58.8883 118.175 58.221 119.005 57.749 120.079V135.24L61.7285 135.924V139H48.96V135.924L52.9395 135.24V116.368L48.96 115.685ZM69.1992 125.548C69.1992 121.642 70.2572 118.427 72.373 115.904C74.4889 113.365 77.3617 112.096 80.9912 112.096C84.637 112.096 87.5179 113.357 89.6338 115.88C91.766 118.403 92.832 121.625 92.832 125.548V126.085C92.832 130.024 91.7741 133.246 89.6582 135.753C87.5423 138.259 84.6696 139.513 81.04 139.513C77.3779 139.513 74.4889 138.259 72.373 135.753C70.2572 133.23 69.1992 130.007 69.1992 126.085V125.548ZM74.0088 126.085C74.0088 128.884 74.5947 131.196 75.7666 133.019C76.9548 134.841 78.7126 135.753 81.04 135.753C83.3187 135.753 85.0521 134.841 86.2402 133.019C87.4284 131.196 88.0225 128.884 88.0225 126.085V125.548C88.0225 122.781 87.4284 120.478 86.2402 118.639C85.0521 116.799 83.3024 115.88 80.9912 115.88C78.68 115.88 76.9385 116.799 75.7666 118.639C74.5947 120.478 74.0088 122.781 74.0088 125.548V126.085ZM121.958 115.685L119.59 116.051L109.531 143.053C108.864 144.827 107.904 146.373 106.65 147.691C105.397 149.01 103.713 149.669 101.597 149.669C101.222 149.669 100.734 149.62 100.132 149.522C99.5296 149.441 99.0658 149.36 98.7402 149.278L99.2285 145.494C99.1309 145.478 99.4157 145.494 100.083 145.543C100.767 145.592 101.198 145.616 101.377 145.616C102.402 145.616 103.232 145.169 103.867 144.273C104.502 143.395 105.055 142.377 105.527 141.222L106.675 138.487L97.959 116.075L95.542 115.685V112.584H106.211V115.685L103.232 116.173L107.798 129.21L108.677 132.579H108.823L114.316 116.173L111.313 115.685V112.584H121.958V115.685ZM136.948 139.513C133.27 139.513 130.34 138.292 128.159 135.851C125.994 133.393 124.912 130.211 124.912 126.305V125.23C124.912 121.471 126.027 118.346 128.257 115.855C130.503 113.349 133.156 112.096 136.216 112.096C139.764 112.096 142.45 113.17 144.272 115.318C146.112 117.467 147.031 120.331 147.031 123.912V126.915H129.893L129.819 127.037C129.868 129.576 130.511 131.668 131.748 133.312C132.985 134.939 134.718 135.753 136.948 135.753C138.576 135.753 140 135.525 141.221 135.069C142.458 134.597 143.524 133.954 144.419 133.141L146.299 136.266C145.355 137.177 144.102 137.95 142.539 138.585C140.993 139.203 139.129 139.513 136.948 139.513ZM136.216 115.88C134.604 115.88 133.229 116.563 132.09 117.931C130.951 119.282 130.251 120.982 129.99 123.033L130.039 123.155H142.222V122.521C142.222 120.632 141.717 119.054 140.708 117.784C139.699 116.515 138.201 115.88 136.216 115.88ZM151.133 104.015V100.914H159.922V122.984H162.998L168.638 116.002L166.221 115.685V112.584H177.28V115.685L174.058 116.319L167.1 124.62L175.571 135.338L178.574 135.924V139H167.612V135.924L170.078 135.606L163.071 126.817H159.922V135.24L163.901 135.924V139H151.133V135.924L155.112 135.24V104.698L151.133 104.015ZM193.833 135.924L196.47 135.558L208.896 103.453H213.022L225.229 135.558L227.842 135.924V139H217.637V135.924L220.322 135.46L217.979 128.917H203.745L201.328 135.46L204.014 135.924V139H193.833V135.924ZM205.234 124.889H216.514L210.996 109.63H210.85L205.234 124.889ZM230.576 135.924L234.556 135.24V116.368L230.576 115.685V112.584H238.853L239.194 116.515C240.073 115.115 241.172 114.033 242.49 113.268C243.825 112.486 245.339 112.096 247.031 112.096C249.88 112.096 252.085 112.934 253.647 114.61C255.21 116.271 255.991 118.842 255.991 122.325V135.24L259.971 135.924V139H247.202V135.924L251.182 135.24V122.423C251.182 120.095 250.718 118.443 249.79 117.467C248.879 116.49 247.479 116.002 245.591 116.002C244.207 116.002 242.979 116.336 241.904 117.003C240.846 117.67 240 118.582 239.365 119.737V135.24L243.345 135.924V139H230.576V135.924ZM281.016 135.851C280.153 137.055 279.095 137.966 277.842 138.585C276.605 139.203 275.164 139.513 273.521 139.513C270.298 139.513 267.775 138.349 265.952 136.021C264.146 133.678 263.242 130.602 263.242 126.793V126.28C263.242 122.032 264.146 118.606 265.952 116.002C267.775 113.398 270.314 112.096 273.569 112.096C275.132 112.096 276.507 112.389 277.695 112.975C278.9 113.544 279.925 114.374 280.771 115.465V104.698L276.792 104.015V100.914H280.771H285.581V135.24L289.561 135.924V139H281.406L281.016 135.851ZM268.052 126.793C268.052 129.446 268.597 131.578 269.688 133.189C270.778 134.801 272.463 135.606 274.741 135.606C276.174 135.606 277.378 135.281 278.354 134.63C279.331 133.979 280.137 133.059 280.771 131.871V119.615C280.153 118.508 279.347 117.63 278.354 116.979C277.362 116.327 276.174 116.002 274.79 116.002C272.495 116.002 270.794 116.954 269.688 118.858C268.597 120.763 268.052 123.237 268.052 126.28V126.793ZM310.483 139C310.337 138.284 310.223 137.641 310.142 137.071C310.06 136.502 310.003 135.932 309.971 135.362C309.043 136.55 307.879 137.543 306.479 138.341C305.096 139.122 303.615 139.513 302.036 139.513C299.285 139.513 297.194 138.845 295.762 137.511C294.329 136.16 293.613 134.264 293.613 131.822C293.613 129.316 294.622 127.387 296.641 126.036C298.675 124.669 301.458 123.985 304.99 123.985H309.946V120.909C309.946 119.363 309.458 118.142 308.481 117.247C307.505 116.336 306.146 115.88 304.404 115.88C303.2 115.88 302.134 116.035 301.206 116.344C300.295 116.653 299.554 117.076 298.984 117.613L298.472 120.396H294.761V115.27C295.965 114.309 297.422 113.544 299.131 112.975C300.84 112.389 302.695 112.096 304.697 112.096C307.692 112.096 310.117 112.861 311.973 114.391C313.828 115.921 314.756 118.11 314.756 120.958V133.678C314.756 134.02 314.756 134.353 314.756 134.679C314.772 135.004 314.797 135.33 314.829 135.655L316.782 135.924V139H310.483ZM302.744 135.484C304.339 135.484 305.796 135.102 307.114 134.337C308.433 133.572 309.377 132.652 309.946 131.578V127.232H304.819C302.85 127.232 301.287 127.688 300.132 128.6C298.993 129.511 298.423 130.618 298.423 131.92C298.423 133.076 298.781 133.963 299.497 134.581C300.213 135.183 301.296 135.484 302.744 135.484ZM347.446 119.884H357.212V124.229H347.446V135.436H342.637V124.229H332.847V119.884H342.637V109.557H347.446V119.884Z" fill="#6B778C"/>
</g>
<defs>
<filter id="filter0_d" x="287" y="178" width="38" height="38" filterUnits="userSpaceOnUse" color-interpolation-filters="sRGB">
<feFlood flood-opacity="0" result="BackgroundImageFix"/>
<feColorMatrix in="SourceAlpha" type="matrix" values="0 0 0 0 0 0 0 0 0 0 0 0 0 0 0 0 0 0 127 0"/>
<feOffset dy="4"/>
<feGaussianBlur stdDeviation="2"/>
<feColorMatrix type="matrix" values="0 0 0 0 0 0 0 0 0 0 0 0 0 0 0 0 0 0 0.25 0"/>
<feBlend mode="normal" in2="BackgroundImageFix" result="effect1_dropShadow"/>
<feBlend mode="normal" in="SourceGraphic" in2="effect1_dropShadow" result="shape"/>
</filter>
<filter id="filter1_d" x="41" y="167" width="68" height="68" filterUnits="userSpaceOnUse" color-interpolation-filters="sRGB">
<feFlood flood-opacity="0" result="BackgroundImageFix"/>
<feColorMatrix in="SourceAlpha" type="matrix" values="0 0 0 0 0 0 0 0 0 0 0 0 0 0 0 0 0 0 127 0"/>
<feOffset dy="4"/>
<feGaussianBlur stdDeviation="2"/>
<feColorMatrix type="matrix" values="0 0 0 0 0 0 0 0 0 0 0 0 0 0 0 0 0 0 0.25 0"/>
<feBlend mode="normal" in2="BackgroundImageFix" result="effect1_dropShadow"/>
<feBlend mode="normal" in="SourceGraphic" in2="effect1_dropShadow" result="shape"/>
</filter>
<filter id="filter2_d" x="246" y="53" width="28" height="28" filterUnits="userSpaceOnUse" color-interpolation-filters="sRGB">
<feFlood flood-opacity="0" result="BackgroundImageFix"/>
<feColorMatrix in="SourceAlpha" type="matrix" values="0 0 0 0 0 0 0 0 0 0 0 0 0 0 0 0 0 0 127 0"/>
<feOffset dy="4"/>
<feGaussianBlur stdDeviation="2"/>
<feColorMatrix type="matrix" values="0 0 0 0 0 0 0 0 0 0 0 0 0 0 0 0 0 0 0.25 0"/>
<feBlend mode="normal" in2="BackgroundImageFix" result="effect1_dropShadow"/>
<feBlend mode="normal" in="SourceGraphic" in2="effect1_dropShadow" result="shape"/>
</filter>
<linearGradient id="paint0_linear" x1="291" y1="178" x2="357" y2="236" gradientUnits="userSpaceOnUse">
<stop offset="0.0729167" stop-color="#344563"/>
<stop offset="0.578125" stop-color="#0747A6"/>
<stop offset="0.9999" stop-color="#403294"/>
<stop offset="1" stop-color="#C4C4C4" stop-opacity="0"/>
</linearGradient>
<linearGradient id="paint1_linear" x1="45" y1="167" x2="177" y2="283" gradientUnits="userSpaceOnUse">
<stop offset="0.0729167" stop-color="#344563"/>
<stop offset="0.578125" stop-color="#0747A6"/>
<stop offset="0.9999" stop-color="#403294"/>
<stop offset="1" stop-color="#C4C4C4" stop-opacity="0"/>
</linearGradient>
<linearGradient id="paint2_linear" x1="250" y1="53" x2="294" y2="91.6667" gradientUnits="userSpaceOnUse">
<stop offset="0.0729167" stop-color="#344563"/>
<stop offset="0.578125" stop-color="#0747A6"/>
<stop offset="0.9999" stop-color="#403294"/>
<stop offset="1" stop-color="#C4C4C4" stop-opacity="0"/>
</linearGradient>
<clipPath id="clip0">
<rect width="370" height="260" fill="white"/>
</clipPath>
</defs>
</svg>
