<?xml version="1.0" encoding="UTF-8" standalone="no"?>
<!DOCTYPE svg PUBLIC "-//W3C//DTD SVG 1.1//EN" "http://www.w3.org/Graphics/SVG/1.1/DTD/svg11.dtd">
<svg width="150" height="50" viewBox="0 0 530 170" version="1.1" xmlns="http://www.w3.org/2000/svg" xmlns:xlink="http://www.w3.org/1999/xlink" xml:space="preserve" xmlns:serif="http://www.serif.com/" style="fill-rule:evenodd;clip-rule:evenodd;stroke-linejoin:round;stroke-miterlimit:2;">
    <g transform="matrix(1,0,0,1,-39.0649,-104.784)">
        <path d="M256.8,265.9C256.8,266.633 256.6,267.167 256.2,267.5C255.8,267.767 255.267,268 254.6,268.2C254.2,268.267 253.5,268.4 252.5,268.6C251.567,268.8 250.4,268.967 249,269.1C247.6,269.3 246.033,269.467 244.3,269.6C242.567,269.733 240.733,269.8 238.8,269.8C235.8,269.8 232.633,269.367 229.3,268.5C225.967,267.633 222.9,266.067 220.1,263.8C217.367,261.467 215.067,258.333 213.2,254.4C211.4,250.467 210.5,245.4 210.5,239.2L210.5,224.5C210.5,218.233 211.4,213.133 213.2,209.2C215.067,205.2 217.367,202.067 220.1,199.8C222.9,197.533 225.967,196 229.3,195.2C232.633,194.333 235.8,193.9 238.8,193.9C240.733,193.9 242.567,193.967 244.3,194.1C246.033,194.233 247.6,194.4 249,194.6C250.4,194.733 251.567,194.9 252.5,195.1C253.5,195.233 254.2,195.367 254.6,195.5C255.267,195.7 255.8,195.967 256.2,196.3C256.6,196.567 256.8,197.067 256.8,197.8L256.8,204.5C256.8,205.1 256.633,205.6 256.3,206C256.033,206.4 255.533,206.6 254.8,206.6L254.6,206.6C253.733,206.533 252.667,206.467 251.4,206.4C250.2,206.267 248.9,206.167 247.5,206.1C246.1,206.033 244.667,205.967 243.2,205.9C241.733,205.833 240.333,205.8 239,205.8C236.933,205.8 235,206.1 233.2,206.7C231.4,207.3 229.867,208.333 228.6,209.8C227.333,211.267 226.333,213.2 225.6,215.6C224.867,218 224.5,220.967 224.5,224.5L224.5,239.2C224.5,242.667 224.867,245.6 225.6,248C226.333,250.4 227.333,252.333 228.6,253.8C229.867,255.267 231.4,256.333 233.2,257C235,257.6 236.933,257.9 239,257.9C240.333,257.9 241.733,257.867 243.2,257.8C244.667,257.733 246.1,257.667 247.5,257.6C248.9,257.533 250.2,257.467 251.4,257.4C252.667,257.267 253.733,257.167 254.6,257.1L254.8,257.1C255.533,257.1 256.033,257.3 256.3,257.7C256.633,258.1 256.8,258.6 256.8,259.2L256.8,265.9ZM313.948,244.9C313.948,248.5 313.414,251.833 312.348,254.9C311.348,257.9 309.848,260.5 307.848,262.7C305.848,264.9 303.348,266.633 300.348,267.9C297.414,269.167 293.981,269.8 290.048,269.8C286.114,269.8 282.648,269.167 279.648,267.9C276.714,266.633 274.248,264.9 272.248,262.7C270.248,260.5 268.714,257.9 267.648,254.9C266.648,251.833 266.148,248.5 266.148,244.9L266.148,236.8C266.148,233.2 266.648,229.9 267.648,226.9C268.714,223.833 270.248,221.2 272.248,219C274.248,216.8 276.714,215.067 279.648,213.8C282.648,212.533 286.114,211.9 290.048,211.9C293.981,211.9 297.414,212.533 300.348,213.8C303.348,215.067 305.848,216.8 307.848,219C309.848,221.2 311.348,223.833 312.348,226.9C313.414,229.9 313.948,233.2 313.948,236.8L313.948,244.9ZM300.748,236.8C300.748,232.667 299.848,229.4 298.048,227C296.248,224.533 293.581,223.3 290.048,223.3C286.514,223.3 283.848,224.533 282.048,227C280.248,229.4 279.348,232.667 279.348,236.8L279.348,244.9C279.348,249.033 280.248,252.333 282.048,254.8C283.848,257.2 286.514,258.4 290.048,258.4C293.581,258.4 296.248,257.2 298.048,254.8C299.848,252.333 300.748,249.033 300.748,244.9L300.748,236.8ZM338.97,266.9C338.97,267.433 338.77,267.933 338.37,268.4C338.036,268.8 337.603,269 337.07,269L327.77,269C327.236,269 326.77,268.8 326.37,268.4C325.97,267.933 325.77,267.433 325.77,266.9L325.77,194.9C325.77,194.367 325.97,193.9 326.37,193.5C326.77,193.1 327.236,192.9 327.77,192.9L337.07,192.9C337.603,192.9 338.036,193.1 338.37,193.5C338.77,193.9 338.97,194.367 338.97,194.9L338.97,266.9ZM394.316,267C394.316,267.533 394.116,268 393.716,268.4C393.316,268.8 392.849,269 392.316,269L383.816,269C383.282,269 382.816,268.8 382.416,268.4C382.016,268 381.816,267.533 381.816,267L381.816,265.4C379.482,266.8 377.149,267.9 374.816,268.7C372.482,269.433 370.116,269.8 367.716,269.8C365.649,269.8 363.582,269.567 361.516,269.1C359.449,268.633 357.582,267.767 355.916,266.5C354.316,265.233 352.982,263.533 351.916,261.4C350.916,259.267 350.416,256.5 350.416,253.1L350.416,252.7C350.416,246.967 352.316,242.667 356.116,239.8C359.916,236.867 366.149,235.4 374.816,235.4L381.116,235.4L381.116,231C381.116,227.733 380.382,225.567 378.916,224.5C377.516,223.433 375.316,222.9 372.316,222.9C369.116,222.9 366.016,223 363.016,223.2C360.016,223.333 357.682,223.5 356.016,223.7L355.516,223.7C354.982,223.7 354.549,223.6 354.216,223.4C353.882,223.2 353.716,222.733 353.716,222L353.716,215.6C353.716,214.467 354.349,213.767 355.616,213.5C357.616,213.1 360.016,212.733 362.816,212.4C365.682,212.067 368.849,211.9 372.316,211.9C379.449,211.9 384.882,213.467 388.616,216.6C392.416,219.733 394.316,224.533 394.316,231L394.316,267ZM381.116,244.2L374.816,244.2C372.549,244.2 370.682,244.4 369.216,244.8C367.816,245.133 366.682,245.667 365.816,246.4C365.016,247.067 364.449,247.933 364.116,249C363.849,250.067 363.716,251.3 363.716,252.7L363.716,253.1C363.716,255.567 364.282,257.233 365.416,258.1C366.549,258.9 368.382,259.3 370.916,259.3C372.716,259.3 374.482,259.033 376.216,258.5C378.016,257.967 379.649,257.3 381.116,256.5L381.116,244.2ZM454.001,244.7C454.001,252.567 452.034,258.733 448.101,263.2C444.167,267.6 438.167,269.8 430.101,269.8C426.901,269.8 423.534,269.567 420.001,269.1C416.467,268.633 413.134,268 410.001,267.2C408.867,266.867 408.134,266.533 407.801,266.2C407.467,265.8 407.301,265.233 407.301,264.5L407.301,194.9C407.301,194.367 407.501,193.9 407.901,193.5C408.301,193.1 408.767,192.9 409.301,192.9L418.501,192.9C419.034,192.9 419.501,193.1 419.901,193.5C420.301,193.9 420.501,194.367 420.501,194.9L420.501,212.6C422.367,212.333 424.134,212.167 425.801,212.1C427.467,211.967 428.901,211.9 430.101,211.9C438.167,211.9 444.167,214.133 448.101,218.6C452.034,223 454.001,229.133 454.001,237L454.001,244.7ZM440.801,237C440.801,234.933 440.634,233.033 440.301,231.3C440.034,229.567 439.501,228.067 438.701,226.8C437.901,225.533 436.801,224.533 435.401,223.8C434.001,223.067 432.234,222.7 430.101,222.7C428.901,222.7 427.334,222.767 425.401,222.9C423.534,223.033 421.901,223.2 420.501,223.4L420.501,258.3C421.434,258.5 422.801,258.667 424.601,258.8C426.467,258.933 428.301,259 430.101,259C432.234,259 434.001,258.633 435.401,257.9C436.801,257.167 437.901,256.167 438.701,254.9C439.501,253.633 440.034,252.133 440.301,250.4C440.634,248.667 440.801,246.767 440.801,244.7L440.801,237ZM502.916,254.2C502.916,256.4 502.516,258.467 501.716,260.4C500.916,262.267 499.682,263.9 498.016,265.3C496.416,266.7 494.382,267.8 491.916,268.6C489.449,269.4 486.582,269.8 483.316,269.8C482.316,269.8 481.082,269.767 479.616,269.7C478.216,269.633 476.682,269.5 475.016,269.3C473.349,269.167 471.682,269 470.016,268.8C468.349,268.533 466.816,268.2 465.416,267.8C464.149,267.467 463.516,266.7 463.516,265.5L463.516,259.5C463.516,259.1 463.649,258.733 463.916,258.4C464.249,258.067 464.682,257.9 465.216,257.9L465.616,257.9C466.816,258.033 468.216,258.167 469.816,258.3C471.482,258.433 473.116,258.567 474.716,258.7C476.316,258.767 477.816,258.833 479.216,258.9C480.616,258.967 481.682,259 482.416,259C483.949,259 485.182,258.9 486.116,258.7C487.049,258.433 487.749,258.1 488.216,257.7C488.749,257.233 489.082,256.7 489.216,256.1C489.416,255.5 489.516,254.867 489.516,254.2C489.516,253.267 489.182,252.433 488.516,251.7C487.849,250.967 486.716,250.1 485.116,249.1L471.416,240.7C468.949,239.167 466.916,237.233 465.316,234.9C463.782,232.5 463.016,229.833 463.016,226.9C463.016,216.9 469.349,211.9 482.016,211.9C484.016,211.9 485.816,211.967 487.416,212.1C489.082,212.167 490.616,212.3 492.016,212.5C493.416,212.7 494.749,212.933 496.016,213.2C497.282,213.4 498.549,213.633 499.816,213.9C501.016,214.167 501.616,214.933 501.616,216.2L501.616,222C501.616,223.267 501.082,223.9 500.016,223.9L499.616,223.9C498.949,223.767 497.949,223.633 496.616,223.5C495.349,223.367 493.949,223.267 492.416,223.2C490.882,223.067 489.282,222.967 487.616,222.9C486.016,222.767 484.516,222.7 483.116,222.7C480.716,222.7 478.949,223.033 477.816,223.7C476.749,224.3 476.216,225.367 476.216,226.9C476.216,227.7 476.549,228.4 477.216,229C477.949,229.6 478.949,230.267 480.216,231L493.316,239C495.449,240.267 497.116,241.533 498.316,242.8C499.582,244.067 500.549,245.333 501.216,246.6C501.949,247.867 502.416,249.133 502.616,250.4C502.816,251.667 502.916,252.933 502.916,254.2Z" style="fill:rgb(7,71,166);fill-rule:nonzero;"/>
    </g>
    <g transform="matrix(1,0,0,1,-39.0649,-104.784)">
        <path d="M167.713,107.274C198.561,100.448 224.774,130.398 213.922,160.069L182.135,246.98C171.944,274.842 136.033,282.304 115.586,260.809L52.817,194.821C31.361,172.264 42.762,134.923 73.158,128.197L167.713,107.274Z" style="fill:url(#_Linear1);fill-rule:nonzero;"/>
    </g>
    <g transform="matrix(1,0,0,1,-39.0649,-104.784)">
        <circle cx="537" cy="192" r="25" style="fill:rgb(0,82,204);"/>
    </g>
    <g transform="matrix(1,0,0,1,-39.0649,-104.784)">
        <path d="M528.915,180.97L528.915,178.17C528.915,177.785 528.6,177.47 528.215,177.47L526.43,177.47C526.045,177.47 525.73,177.785 525.73,178.17L525.73,180.97C525.73,181.355 526.045,181.67 526.43,181.67L528.215,181.67C528.6,181.67 528.915,181.355 528.915,180.97ZM528.845,203.3L528.845,185.45C528.845,185.065 528.53,184.75 528.145,184.75L526.465,184.75C526.08,184.75 525.765,185.065 525.765,185.45L525.765,203.3C525.765,203.685 526.08,204 526.465,204L528.145,204C528.53,204 528.845,203.685 528.845,203.3ZM548.202,202.845L548.202,178.345C548.202,177.96 547.922,177.68 547.572,177.68L545.787,177.68C545.402,177.68 545.122,177.995 545.122,178.345L545.122,184.855C543.757,184.61 542.112,184.505 541.027,184.505C535.917,184.505 533.397,187.585 533.397,193.08L533.397,195.6C533.397,200.85 535.812,204.245 541.027,204.245C543.162,204.245 545.297,204.07 547.467,203.65C548.097,203.545 548.202,203.3 548.202,202.845ZM545.122,201.34C543.932,201.445 542.217,201.55 541.027,201.55C537.562,201.55 536.477,199.415 536.477,195.6L536.477,193.08C536.477,189.335 537.597,187.2 541.027,187.2C542.147,187.2 543.967,187.235 545.122,187.445L545.122,201.34Z" style="fill:white;fill-rule:nonzero;"/>
    </g>
    <defs>
        <linearGradient id="_Linear1" x1="0" y1="0" x2="1" y2="0" gradientUnits="userSpaceOnUse" gradientTransform="matrix(-128.5,169,-169,-128.5,215,106)"><stop offset="0" style="stop-color:rgb(0,82,204);stop-opacity:1"/><stop offset="1" style="stop-color:rgb(0,101,255);stop-opacity:1"/><stop offset="1" style="stop-color:rgb(0,101,255);stop-opacity:1"/><stop offset="1" style="stop-color:rgb(0,101,255);stop-opacity:0"/></linearGradient>
    </defs>
</svg>
